{
  "title": "Command Response",
  "description": "Response to command",
  "type": "object",
  "properties": {
    "command_response": {
      "description": "Root",
      "type": "object",
      "properties": {
        "id": {
          "description": "Chip ID of the device. It is a UUID and used to find the site information where device installed.",
          "type": "string"
        },
        "cmd_id": {
          "description": "Unique identifier to associate to the command",
          "type": "string"
        },
        "status": {
          "description": "State of the command response",
          "enum": [
            0,
            1
          ]
        },
        "message": {
          "description": "Message text returned from command",
          "type": "string"
        }
      },
      "required": [
        "id",
        "status"
      ]
    }
  },
  "required": [
    "command_response"
  ],
  "additionalProperties": false
}
